Credit approval
…
All 4 chains finished successfully.
Mean chain execution time: 40.9 seconds.
Total execution time: 43.5 seconds.

# Summary
fit$summary()

# A tibble: 175 × 10
   variable       mean   median      sd     mad       q5      q95  rhat ess_bulk
   <chr>         <dbl>    <dbl>   <dbl>   <dbl>    <dbl>    <dbl> <dbl>    <dbl>
 1 lp__       -2.60e+2 -2.59e+2 1.41e+0 1.21e+0 -2.62e+2 -2.58e+2  1.00   14580.
 2 alpha      -1.34e+0 -1.33e+0 1.48e-1 1.49e-1 -1.58e+0 -1.10e+0  1.00   15832.
 3 beta[1]     2.28e-1  2.27e-1 4.57e-2 4.59e-2  1.55e-1  3.05e-1  1.00   16114.
 4 beta[2]     3.40e-1  3.38e-1 5.22e-2 5.14e-2  2.56e-1  4.28e-1  1.00   17570.
 5 beta[3]     4.08e-4  4.01e-4 1.19e-4 1.18e-4  2.25e-4  6.14e-4  1.00   38585.
 6 Y2[1]       5.95e-1  5.95e-1 6.00e-2 6.01e-2  4.96e-1  6.94e-1  1.00   19639.
 7 Y2[2]       3.64e-1  3.64e-1 2.51e-2 2.53e-2  3.24e-1  4.06e-1  1.00   23912.
 8 Y2[3]       7.44e-1  7.45e-1 4.29e-2 4.30e-2  6.72e-1  8.14e-1  1.00   21883.
 9 Y2[4]       4.08e-1  4.07e-1 2.97e-2 2.98e-2  3.60e-1  4.57e-1  1.00   27887.
10 Y2[5]       9.41e-1  9.45e-1 2.62e-2 2.41e-2  8.92e-1  9.75e-1  1.00   19075.
# ℹ 165 more rows
# ℹ 1 more variable: ess_tail <dbl>
…
